{
  "slide": { "title": "Credits Donor List" },
  "settings": {
    "fieldMappings": { "list_item": "{{name}}" },
    "slide": {
      "orientation": "horizontal",
      "columns": "2",
      "scrollSpeed": "5"
    },
    "page": [
      {
        "data": { "title": "THANK YOU TO OUR CURATOR'S CIRCLE" },
        "filters": {
          "filters": [
            {
              "id": "k076k0n3",
              "operator": "is",
              "condition": {
                "label": "Text Is Exactly",
                "type": "text",
                "operator": "is",
                "requireValue": true
              },
              "value": "Curator Circle",
              "field": "member_level"
            }
          ]
        },
        "style": {
          "colors": {
            "backgroundOverlay": "rgba(255, 255, 255, 0.2)",
            "titleBgColor": "#fff",

            "titleColor": "rgba(240, 144, 33, 1)",
            "itemColor": "rgba(0, 0, 0, 1)"
          },
          "images": {
            "background": "https://images.unsplash.com/photo-1448582649076-3981753123b5?ixlib=rb-1.2.1&ixid=eyJhcHBfaWQiOjEyMDd9&auto=format&fit=crop&w=2700&q=80"
          },
          "fonts": { "rowFontSize": "22", "titleFontSize": "24" }
        }
      },
      {
        "data": { "title": "THANK YOU TO OUR SHELL MEMBERS" },
        "filters": {
          "filters": [
            {
              "id": "k076lxe8",
              "operator": "eq",
              "condition": {
                "label": "Equal To",
                "type": "number",
                "operator": "eq",
                "requireValue": true
              },
              "value": "Shell",
              "field": "member_level"
            }
          ]
        },
        "style": {
          "colors": {
            "backgroundOverlay": "rgba(255, 255, 255, 0.2)",
            "titleBgColor": "#fff",
            "titleColor": "rgba(240, 144, 33, 1)",
            "itemColor": "rgba(0, 0, 0, 1)"
          },
          "images": {
            "background": "https://images.unsplash.com/photo-1448582649076-3981753123b5?ixlib=rb-1.2.1&ixid=eyJhcHBfaWQiOjEyMDd9&auto=format&fit=crop&w=2700&q=80"
          },
          "fonts": { "rowFontSize": "20", "titleFontSize": "22" }
        }
      },
      {
        "data": { "title": "THANK YOU TO OUR SILVER MEMBERS" },
        "filters": {
          "filters": [
            {
              "id": "jusf6rro",
              "operator": "is",
              "condition": {
                "label": "Text Is Exactly",
                "type": "text",
                "operator": "is",
                "requireValue": true
              },
              "value": "Silver",
              "field": "member_level"
            }
          ]
        },
        "style": {
          "colors": {
            "backgroundOverlay": "rgba(255, 255, 255, 0.2)",
            "titleBgColor": "#fff",

            "titleColor": "rgba(225, 112, 0, 1)",
            "itemColor": "rgba(0, 0, 0, 1)"
          },
          "images": {
            "background": "https://images.unsplash.com/photo-1448582649076-3981753123b5?ixlib=rb-1.2.1&ixid=eyJhcHBfaWQiOjEyMDd9&auto=format&fit=crop&w=2700&q=80"
          },
          "fonts": { "rowFontSize": "20", "titleFontSize": "22" }
        }
      }
    ]
  },
  "data": [
    {
      "name": "Mr. and Mrs. Alan B. Whitman",
      "member_level": "Curator Circle",
      "sort_name": "Whitman"
    },
    {
      "name": "Mr. David L. Williams",
      "member_level": "Curator Circle",
      "sort_name": "Williams"
    },
    {
      "name": "Mr. Grant Withers",
      "member_level": "Curator Circle",
      "sort_name": "Withers"
    },
    {
      "name": "Ms. Monica Wyatt",
      "member_level": "Curator Circle",
      "sort_name": "Wyatt"
    },
    {
      "name": "Mr. Fausto Yturria",
      "member_level": "Curator Circle",
      "sort_name": "Yturria"
    },
    {
      "name": "Mr. and Mrs. Johnny Zamrzla",
      "member_level": "Curator Circle",
      "sort_name": "Zamrzla"
    },
    {
      "name": "Ms. Sheri Foster-Blake and Mr. John Blake",
      "member_level": "Silver",
      "sort_name": "Blake"
    },
    { "name": "Ms. Karen Cove", "member_level": "Silver", "sort_name": "Cove" },
    {
      "name": "Ms. Susan P. de Christofaro",
      "member_level": "Silver",
      "sort_name": "de Christofaro"
    },
    {
      "name": "Mr. and Mrs. Lloyd R. De Llamas",
      "member_level": "Silver",
      "sort_name": "De Llamas"
    },
    {
      "name": "Ms. Susan J. Kroll and Mr. Michael Desilets",
      "member_level": "Silver",
      "sort_name": "Desilets"
    },
    {
      "name": "Mr. and Mrs. Richard L. Garson",
      "member_level": "Silver",
      "sort_name": "Garson"
    },
    {
      "name": "Mr. and Mrs. Bret Ingraham",
      "member_level": "Silver",
      "sort_name": "Ingraham"
    },
    {
      "name": "Ms. Kathryn W. Leonard",
      "member_level": "Silver",
      "sort_name": "Leonard"
    },
    {
      "name": "Mr. and Mrs. Bruce Little",
      "member_level": "Silver",
      "sort_name": "Little"
    },
    {
      "name": "Mr. and Mrs. Denis McCallion",
      "member_level": "Silver",
      "sort_name": "McCallion"
    },
    {
      "name": "Mr. and Mrs. Edward P. McKeown Jr.",
      "member_level": "Silver",
      "sort_name": "McKeown"
    },
    {
      "name": "Mr. and Mrs. Mark R. Milano",
      "member_level": "Silver",
      "sort_name": "Milano"
    },
    {
      "name": "Mr. and Mrs. Alan J. Olson",
      "member_level": "Silver",
      "sort_name": "Olson"
    },
    {
      "name": "Ms. Ann S. Petersen and Dr. Leslie A. Pam",
      "member_level": "Silver",
      "sort_name": "Pam"
    },
    {
      "name": "Mr. and Mrs. Alex Trebek",
      "member_level": "Silver",
      "sort_name": "Trebek"
    },
    {
      "name": "Dr. James W. Walters",
      "member_level": "Silver",
      "sort_name": "Walters"
    },
    {
      "name": "Mr. and Mrs. David Arendes",
      "member_level": "Shell",
      "sort_name": "Arendes"
    },
    {
      "name": "Mrs. Lindy Balmer",
      "member_level": "Shell",
      "sort_name": "Balmer"
    },
    {
      "name": "Mr. and Mrs. Michael Blackman",
      "member_level": "Shell",
      "sort_name": "Blackman"
    },
    {
      "name": "Mr. and Mrs. John E. Blemker",
      "member_level": "Shell",
      "sort_name": "Blemker"
    },
    {
      "name": "Ms. Bonnie Bryant",
      "member_level": "Shell",
      "sort_name": "Bryant"
    },
    {
      "name": "Mrs. Cheryl A. Conner and Mrs. Roberta I. Johnson",
      "member_level": "Shell",
      "sort_name": "Conner"
    },
    {
      "name": "Mr. and Mrs. Berl D. Dahlstrom",
      "member_level": "Shell",
      "sort_name": "Dahlstrom"
    },
    {
      "name": "Mr. and Mrs. Eduard A. De Los Rios",
      "member_level": "Shell",
      "sort_name": "De Los Rios"
    },
    {
      "name": "Mr. and Mrs. Webb Edwards",
      "member_level": "Shell",
      "sort_name": "Edwards"
    },
    {
      "name": "Mr. and Mrs. Kenneth M. Ellis",
      "member_level": "Shell",
      "sort_name": "Ellis"
    },
    {
      "name": "Ms. Cynthia Frederick and Mr. John W. Emmons",
      "member_level": "Shell",
      "sort_name": "Emmons"
    },
    {
      "name": "The Honorable and Mrs. Richard L. Fruin Jr.",
      "member_level": "Shell",
      "sort_name": "Fruin"
    },
    {
      "name": "Mr. and Mrs. Victor M. Garcia",
      "member_level": "Shell",
      "sort_name": "Garcia"
    },
    {
      "name": "Mr. Dwight M. Gillett",
      "member_level": "Shell",
      "sort_name": "Gillett"
    },
    {
      "name": "Mrs. Eunice E. Goodan",
      "member_level": "Shell",
      "sort_name": "Goodan"
    },
    {
      "name": "Mr. and Mrs. Lawrence Goodfried",
      "member_level": "Shell",
      "sort_name": "Goodfried"
    },
    {
      "name": "Dr. John R. Heckenlively",
      "member_level": "Shell",
      "sort_name": "Heckenlively"
    },
    {
      "name": "Dr. and Mrs. Stephen J. Howard",
      "member_level": "Shell",
      "sort_name": "Howard"
    },
    {
      "name": "Ms. Lauren M. Virdone and Mr. Nicholas G. Hronopoulos",
      "member_level": "Shell",
      "sort_name": "Hronopoulos"
    },
    {
      "name": "Mr. and Mrs. John A. Hyde",
      "member_level": "Shell",
      "sort_name": "Hyde"
    },
    {
      "name": "Dr. Louise A. Jones",
      "member_level": "Shell",
      "sort_name": "Jones"
    },
    {
      "name": "Mrs. Julie Stembridge and Mr. Paul Jordan",
      "member_level": "Shell",
      "sort_name": "Jordan"
    },
    {
      "name": "Mrs. Jean D. Kagan",
      "member_level": "Shell",
      "sort_name": "Kagan"
    },
    {
      "name": "Mr. and Mrs. Al Kepler",
      "member_level": "Shell",
      "sort_name": "Kepler"
    },
    {
      "name": "Miss Sally J. Lash",
      "member_level": "Shell",
      "sort_name": "Lash"
    },
    {
      "name": "Mr. and Mrs. Roderick N. Macdonell",
      "member_level": "Shell",
      "sort_name": "Macdonell"
    },
    {
      "name": "Mr. and Mrs. Roger I. MacFarlane",
      "member_level": "Shell",
      "sort_name": "MacFarlane"
    },
    {
      "name": "Mr. William A. MacLaughlin",
      "member_level": "Shell",
      "sort_name": "MacLaughlin"
    },
    {
      "name": "Mr. and Mrs. John McConnell",
      "member_level": "Shell",
      "sort_name": "McConnell"
    },
    {
      "name": "Mr. and Mrs. Greig McRitchie",
      "member_level": "Shell",
      "sort_name": "McRitchie"
    },
    {
      "name": "Mr. and Mrs. Lester W. Miller",
      "member_level": "Shell",
      "sort_name": "Miller"
    },
    {
      "name": "Ms. Caroline H. Owre and Ms. Lisa Butler",
      "member_level": "Shell",
      "sort_name": "Owre"
    },
    {
      "name": "Ms. Barbara Parkes",
      "member_level": "Shell",
      "sort_name": "Parkes"
    },
    {
      "name": "Mrs. Phyllis Pelezzare",
      "member_level": "Shell",
      "sort_name": "Pelezzare"
    },
    {
      "name": "Mr. and Mrs. Don M. Pinkerton",
      "member_level": "Shell",
      "sort_name": "Pinkerton"
    },
    {
      "name": "Ms. Joyce L. Poulson",
      "member_level": "Shell",
      "sort_name": "Poulson"
    },
    {
      "name": "Mr. and Mrs. Edwin A. Prober",
      "member_level": "Shell",
      "sort_name": "Prober"
    },
    {
      "name": "Dr. Teresa K. Nakashima and Dr. Charles J. Rennie",
      "member_level": "Shell",
      "sort_name": "Rennie"
    },
    {
      "name": "Mr. Robert N. Schreck",
      "member_level": "Shell",
      "sort_name": "Schreck"
    },
    {
      "name": "Ms. Nancy B. Thompson",
      "member_level": "Shell",
      "sort_name": "Thompson"
    },
    {
      "name": "Mr. Robert W. Thurston",
      "member_level": "Shell",
      "sort_name": "Thurston"
    },
    {
      "name": "Mr. Gerald A. Tomsic",
      "member_level": "Shell",
      "sort_name": "Tomsic"
    },
    {
      "name": "Mr. and Mrs. James A. Tyree",
      "member_level": "Shell",
      "sort_name": "Tyree"
    }
  ]
}
